Estimating Trophic Position - {trps} – Blog
…
5 Assess data

In {trps} we have several data sets, they include stable isotope data (\(\delta^{13}C\) and \(\delta^{15}N\)) for a consumer, lake trout (Salvelinus namaycush), a benthic baseline, amphipods, and a pelagic baseline, dreissenids, for an ecoregion in Lake Ontario.

5.1 Consumer data

We check out each data set with the first being the consumer.

consumer_iso

# A tibble: 30 × 4
   common_name ecoregion  d13c  d15n
   <fct>       <fct>     <dbl> <dbl>
 1 Lake Trout  Embayment -22.9  15.9
 2 Lake Trout  Embayment -22.5  16.2
 3 Lake Trout  Embayment -22.8  17.0
 4 Lake Trout  Embayment -22.3  16.6
 5 Lake Trout  Embayment -22.5  16.6
 6 Lake Trout  Embayment -22.3  16.6
 7 Lake Trout  Embayment -22.3  16.6
 8 Lake Trout  Embayment -22.5  16.2
 9 Lake Trout  Embayment -22.9  16.4
10 Lake Trout  Embayment -22.3  16.3
# ℹ 20 more rows
…
combined_iso_os_1 <- combined_iso_os %>%
  group_by(ecoregion, common_name) %>%
  mutate(
    c1 = mean(d13c_b1, na.rm = TRUE),
    n1 = mean(d15n_b1, na.rm = TRUE),
    l1 = 2
  ) %>%
  ungroup()

Let’s view our combined data.

combined_iso_os_1

# A tibble: 30 × 10
      id common_name ecoregion  d13c  d15n d13c_b1 d15n_b1    c1    n1    l1
   <int> <fct>       <fct>     <dbl> <dbl>   <dbl>   <dbl> <dbl> <dbl> <dbl>
 1     1 Lake Trout  Embayment -22.9  15.9   -26.2    8.44 -24.6  8.28     2
 2     2 Lake Trout  Embayment -22.5  16.2   -26.6    8.77 -24.6  8.28     2
 3     3 Lake Trout  Embayment -22.8  17.0   -26.0    8.05 -24.6  8.28     2
 4     4 Lake Trout  Embayment -22.3  16.6   -22.1   13.6  -24.6  8.28     2
 5     5 Lake Trout  Embayment -22.5  16.6   -24.3    6.99 -24.6  8.28     2
 6     6 Lake Trout  Embayment -22.3  16.6   -22.1    7.95 -24.6  8.28     2
 7     7 Lake Trout  Embayment -22.3  16.6   -24.7    7.37 -24.6  8.28     2
 8     8 Lake Trout  Embayment -22.5  16.2   -26.6    6.93 -24.6  8.28     2
 9     9 Lake Trout  Embayment -22.9  16.4   -24.6    6.97 -24.6  8.28     2
10    10 Lake Trout  Embayment -22.3  16.3   -22.1    7.95 -24.6  8.28     2
# ℹ 20 more rows
…
post_draws <- model_output_os %>%
  gather_draws(b_tp_Intercept) %>%
  mutate(
    ecoregion = "Embayment",
    common_name = "Lake Trout",
    .variable = "tp"
  ) %>%
  dplyr::select(common_name, ecoregion, .chain:.value)

Let’s view the post_draws

post_draws

# A tibble: 6,000 × 7
# Groups:   .variable [1]
   common_name ecoregion .chain .iteration .draw .variable .value
   <chr>       <chr>      <int>      <int> <int> <chr>      <dbl>
 1 Lake Trout  Embayment      1          1     1 tp          4.23
 2 Lake Trout  Embayment      1          2     2 tp          4.26
 3 Lake Trout  Embayment      1          3     3 tp          4.39
 4 Lake Trout  Embayment      1          4     4 tp          4.44
 5 Lake Trout  Embayment      1          5     5 tp          4.33
 6 Lake Trout  Embayment      1          6     6 tp          4.74
 7 Lake Trout  Embayment      1          7     7 tp          5.06
 8 Lake Trout  Embayment      1          8     8 tp          4.40
 9 Lake Trout  Embayment      1          9     9 tp          4.42
10 Lake Trout  Embayment      1         10    10 tp          4.30
# ℹ 5,990 more rows
…
